…
First gather all 6 columns into one column called `var_value`. Now, this
means that temporarily, we just made things less tidy.

``` r
juniors_multiple %>% 
  gather(key = "var_name", value = "var_value", score_1:guess_3) %>% 
  # we don't need to do this, but it helps to see
  arrange(baker, var_name)
```

    ## # A tibble: 24 x 3
    ##    baker var_name var_value
    ##    <chr> <chr>    <chr>    
    ##  1 Emma  guess_1  cinnamon 
    ##  2 Emma  guess_2  cloves   
    ##  3 Emma  guess_3  nutmeg   
    ##  4 Emma  score_1  1        
    ##  5 Emma  score_2  0        
    ##  6 Emma  score_3  1        
    ##  7 Harry guess_1  cinnamon 
    ##  8 Harry guess_2  cardamom 
    ##  9 Harry guess_3  nutmeg   
    ## 10 Harry score_1  1        
    ## # … with 14 more rows

We know we need to spread at some point, but we are not there yet. We
can’t spread by `var_name` because we’ll just get the original data set
back. We need to `separate` the `var_name` column first into two
columns: `var` and `order`.

``` r
juniors_multiple %>% 
  gather(key = "var_name", value = "var_value", -baker) %>% 
  separate(var_name, into = c("var", "order"), convert = TRUE) %>% 
  # we don't need to do this, but it helps to see
  arrange(baker, var)
```

    ## # A tibble: 24 x 4
    ##    baker var   order var_value
    ##    <chr> <chr> <int> <chr>    
    ##  1 Emma  guess     1 cinnamon 
    ##  2 Emma  guess     2 cloves   
    ##  3 Emma  guess     3 nutmeg   
    ##  4 Emma  score     1 1        
    ##  5 Emma  score     2 0        
    ##  6 Emma  score     3 1        
    ##  7 Harry guess     1 cinnamon 
    ##  8 Harry guess     2 cardamom 
    ##  9 Harry guess     3 nutmeg   
    ## 10 Harry score     1 1        
    ## # … with 14 more rows
…
